{
  "handler" : "lb:web:connectblox:exec",
  "prefix"  : "/exec",
  "http_method": "POST",
  "parameter" : [ {"key":"workspaces","value":".*"} ],
  "request_protocol"  : "bloxweb_connectblox",
  "request_message"   : "ExecRequest",
  "response_protocol" : "bloxweb_connectblox",
  "response_message"  : "ExecResponse"
}